Game of Thrones
…
Again theres a bit of nonsense here and its a bit uninteresting but as the season progresses it might turn up something fun. Now that weve got our bigrams we can plot these to see the connections between the different words. First, were going to use separate to put the two words into different columns, then well count them up and plot them. If you want more information about this see the tidytext book online as I am entirely cribbing this from that book. The plot requires the packages igraph and ggraph.

bigrams_separated <- dat_bigram %>%
  separate(bigram, c("word1", "word2"), sep = " ")

# new bigram counts:
bigram_counts <- bigrams_separated %>% 
  count(word1, word2, sort = TRUE)

bigram_counts

## # A tibble: 79,500 x 3
##    word1     word2             n
##    <chr>     <chr>         <int>
##  1 id        sacrifice      1009
##  2 fan       acanhasnoname   755
##  3 sacrifice fan             732
##  4 watch     begins          282
##  5 begins    rooting         270
##  6 iron      throne          262
##  7 jon       snow            251
##  8 winter    coming          216
##  9 night     king            185
## 10 fans      check           184
## # ... with 79,490 more rows
…
